{
  "get favorites": {
    "Request": {
      "URL": "/api/favorites/",
      "Method": "GET",
      "Parameters": {
        "page!": "5"
      },
      "Authentication": "true"
    },
    "Response": {
      "data": {
        "info": {
          "current_page": 5,
          "next": "true"
        },
        "courses": [
          {
            "id": 1,
            "course_name": "",
            "instructor_name": "",
            "rating": {
              "count": 250,
              "rating": 3.5
            },
            "duration": "10:30:00",
            "image": "",
            "lecture_count": 113,
            "level": "",
            "price": {
              "current": 200,
              "initial": 200,
              "discount": "0%"
            }
          }
        ]
      }
    }
  },
  "add to favorites": {
    "Request": {
      "URL": "/api/favorites/",
      "Method": "POST",
      "Authentication": "true",
      "body": "course_id"
    },
    "Response": {
      "message": "Success"
    }
  },
  "remove from favorites": {
    "Request": {
      "URL": "/api/favorites/",
      "Method": "DELETE",
      "Authentication": "true",
      "body": "course_id"
    },
    "Response": {
      "message": "Remove Successfully"
    }
  }
}